Subtree: Perl5 (Perl5)
Perl5
  PsiPerlBlockCompoundImpl(Perl5: BLOCK_COMPOUND)
    PsiPerlBlockImpl(Perl5: BLOCK)
      PsiElement(Perl5: {)('{')
      PsiPerlStatementImpl(Perl5: STATEMENT)
        PsiPerlReplacementRegexImpl(Perl5: REPLACEMENT_REGEX)
          PsiElement(Perl5: s)('s')
          PsiElement(Perl5: r{)('/')
          PsiPerlPerlRegexImpl(Perl5: PERL_REGEX)
            PsiElement(Perl5: regex)('some')
          PsiElement(Perl5: re/)('/')
          PsiPerlBlockBracelessImpl(Perl5: BLOCK_BRACELESS)
            PsiPerlBlockCompoundImpl(Perl5: BLOCK_COMPOUND)
              PsiPerlBlockImpl(Perl5: BLOCK)
                PsiElement(Perl5: {)('{')
                PsiErrorElement:Perl5: } expected, got '/'
                  <empty list>
          PsiElement(Perl5: r})('/')
          PsiPerlPerlRegexModifiersImpl(Perl5: PERL_REGEX_MODIFIERS)
            PsiElement(Perl5: /m)('e')
        PsiElement(Perl5: ;)(';')
      PsiPerlStatementImpl(Perl5: STATEMENT)
        PsiPerlReplacementRegexImpl(Perl5: REPLACEMENT_REGEX)
          PsiElement(Perl5: s)('s')
          PsiElement(Perl5: r{)('/')
          PsiPerlPerlRegexImpl(Perl5: PERL_REGEX)
            PsiElement(Perl5: regex)('some')
          PsiElement(Perl5: re/)('/')
          PsiPerlBlockBracelessImpl(Perl5: BLOCK_BRACELESS)
          PsiErrorElement:<func definition>, <method definition>, <statement>, <sub definition>, Perl5: #@abstract, Perl5: #@deprecated, Perl5: #@inject, Perl5: #@method, Perl5: #@noinspection, Perl5: #@override, Perl5: #@returns, Perl5: #@type, Perl5: #@unknown, Perl5: BLOCK_NAME, Perl5: POD, Perl5: TryCatch::, Perl5: __DATA__, Perl5: __END__, Perl5: case, Perl5: default, Perl5: for, Perl5: foreach, Perl5: format, Perl5: fp_after, Perl5: fp_around, Perl5: fp_augment, Perl5: fp_before, Perl5: given, Perl5: if, Perl5: nyi, Perl5: package, Perl5: switch, Perl5: unless, Perl5: until, Perl5: when, Perl5: while or Perl5: { expected, got '}'
            PsiElement(Perl5: })('}')
          PsiElement(Perl5: r})('/')
          PsiPerlPerlRegexModifiersImpl(Perl5: PERL_REGEX_MODIFIERS)
            PsiElement(Perl5: /m)('e')
        PsiElement(Perl5: ;)(';')
      PsiPerlStatementImpl(Perl5: STATEMENT)
        PsiPerlReplacementRegexImpl(Perl5: REPLACEMENT_REGEX)
          PsiElement(Perl5: s)('s')
          PsiElement(Perl5: r{)('{')
          PsiPerlPerlRegexImpl(Perl5: PERL_REGEX)
            PsiElement(Perl5: regex)('some')
          PsiElement(Perl5: r})('}')
          PsiElement(Perl5: re{)('<')
          PsiPerlBlockBracelessImpl(Perl5: BLOCK_BRACELESS)
          PsiErrorElement:<func definition>, <method definition>, <statement>, <sub definition>, Perl5: #@abstract, Perl5: #@deprecated, Perl5: #@inject, Perl5: #@method, Perl5: #@noinspection, Perl5: #@override, Perl5: #@returns, Perl5: #@type, Perl5: #@unknown, Perl5: BLOCK_NAME, Perl5: POD, Perl5: TryCatch::, Perl5: __DATA__, Perl5: __END__, Perl5: case, Perl5: default, Perl5: for, Perl5: foreach, Perl5: format, Perl5: fp_after, Perl5: fp_around, Perl5: fp_augment, Perl5: fp_before, Perl5: given, Perl5: if, Perl5: nyi, Perl5: package, Perl5: switch, Perl5: unless, Perl5: until, Perl5: when, Perl5: while or Perl5: { expected, got '}'
            PsiElement(Perl5: })('}')
          PsiElement(Perl5: r})('>')
          PsiPerlPerlRegexModifiersImpl(Perl5: PERL_REGEX_MODIFIERS)
            PsiElement(Perl5: /m)('e')
        PsiElement(Perl5: ;)(';')
      PsiPerlStatementImpl(Perl5: STATEMENT)
        PsiPerlReplacementRegexImpl(Perl5: REPLACEMENT_REGEX)
          PsiElement(Perl5: s)('s')
          PsiElement(Perl5: r{)('{')
          PsiPerlPerlRegexImpl(Perl5: PERL_REGEX)
            PsiElement(Perl5: regex)('some')
          PsiElement(Perl5: r})('}')
          PsiElement(Perl5: re{)('<')
          PsiPerlBlockBracelessImpl(Perl5: BLOCK_BRACELESS)
            PsiPerlBlockCompoundImpl(Perl5: BLOCK_COMPOUND)
              PsiPerlBlockImpl(Perl5: BLOCK)
                PsiElement(Perl5: {)('{')
                PsiErrorElement:Perl5: } expected, got '>'
                  <empty list>
          PsiElement(Perl5: r})('>')
          PsiPerlPerlRegexModifiersImpl(Perl5: PERL_REGEX_MODIFIERS)
            PsiElement(Perl5: /m)('e')
        PsiElement(Perl5: ;)(';')
      PsiPerlStatementImpl(Perl5: STATEMENT)
        PsiPerlReplacementRegexImpl(Perl5: REPLACEMENT_REGEX)
          PsiElement(Perl5: s)('s')
          PsiElement(Perl5: r{)('/')
          PsiPerlPerlRegexImpl(Perl5: PERL_REGEX)
            PsiElement(Perl5: regex)('some')
          PsiElement(Perl5: re/)('/')
          PsiPerlBlockBracelessImpl(Perl5: BLOCK_BRACELESS)
            PsiPerlBlockCompoundImpl(Perl5: BLOCK_COMPOUND)
              PsiPerlBlockImpl(Perl5: BLOCK)
                PsiElement(Perl5: {)('{')
                PsiErrorElement:Perl5: } expected, got '/'
                  <empty list>
          PsiElement(Perl5: r})('/')
          PsiPerlPerlRegexModifiersImpl(Perl5: PERL_REGEX_MODIFIERS)
            PsiElement(Perl5: /m)('ee')
        PsiElement(Perl5: ;)(';')
      PsiPerlStatementImpl(Perl5: STATEMENT)
        PsiPerlReplacementRegexImpl(Perl5: REPLACEMENT_REGEX)
          PsiElement(Perl5: s)('s')
          PsiElement(Perl5: r{)('/')
          PsiPerlPerlRegexImpl(Perl5: PERL_REGEX)
            PsiElement(Perl5: regex)('some')
          PsiElement(Perl5: re/)('/')
          PsiPerlBlockBracelessImpl(Perl5: BLOCK_BRACELESS)
          PsiErrorElement:<func definition>, <method definition>, <statement>, <sub definition>, Perl5: #@abstract, Perl5: #@deprecated, Perl5: #@inject, Perl5: #@method, Perl5: #@noinspection, Perl5: #@override, Perl5: #@returns, Perl5: #@type, Perl5: #@unknown, Perl5: BLOCK_NAME, Perl5: POD, Perl5: TryCatch::, Perl5: __DATA__, Perl5: __END__, Perl5: case, Perl5: default, Perl5: for, Perl5: foreach, Perl5: format, Perl5: fp_after, Perl5: fp_around, Perl5: fp_augment, Perl5: fp_before, Perl5: given, Perl5: if, Perl5: nyi, Perl5: package, Perl5: switch, Perl5: unless, Perl5: until, Perl5: when, Perl5: while or Perl5: { expected, got '}'
            PsiElement(Perl5: })('}')
          PsiElement(Perl5: r})('/')
          PsiPerlPerlRegexModifiersImpl(Perl5: PERL_REGEX_MODIFIERS)
            PsiElement(Perl5: /m)('ee')
        PsiElement(Perl5: ;)(';')
      PsiPerlStatementImpl(Perl5: STATEMENT)
        PsiPerlReplacementRegexImpl(Perl5: REPLACEMENT_REGEX)
          PsiElement(Perl5: s)('s')
          PsiElement(Perl5: r{)('{')
          PsiPerlPerlRegexImpl(Perl5: PERL_REGEX)
            PsiElement(Perl5: regex)('some')
          PsiElement(Perl5: r})('}')
          PsiElement(Perl5: re{)('<')
          PsiPerlBlockBracelessImpl(Perl5: BLOCK_BRACELESS)
          PsiErrorElement:<func definition>, <method definition>, <statement>, <sub definition>, Perl5: #@abstract, Perl5: #@deprecated, Perl5: #@inject, Perl5: #@method, Perl5: #@noinspection, Perl5: #@override, Perl5: #@returns, Perl5: #@type, Perl5: #@unknown, Perl5: BLOCK_NAME, Perl5: POD, Perl5: TryCatch::, Perl5: __DATA__, Perl5: __END__, Perl5: case, Perl5: default, Perl5: for, Perl5: foreach, Perl5: format, Perl5: fp_after, Perl5: fp_around, Perl5: fp_augment, Perl5: fp_before, Perl5: given, Perl5: if, Perl5: nyi, Perl5: package, Perl5: switch, Perl5: unless, Perl5: until, Perl5: when, Perl5: while or Perl5: { expected, got '}'
            PsiElement(Perl5: })('}')
          PsiElement(Perl5: r})('>')
          PsiPerlPerlRegexModifiersImpl(Perl5: PERL_REGEX_MODIFIERS)
            PsiElement(Perl5: /m)('ee')
        PsiElement(Perl5: ;)(';')
      PsiPerlStatementImpl(Perl5: STATEMENT)
        PsiPerlReplacementRegexImpl(Perl5: REPLACEMENT_REGEX)
          PsiElement(Perl5: s)('s')
          PsiElement(Perl5: r{)('{')
          PsiPerlPerlRegexImpl(Perl5: PERL_REGEX)
            PsiElement(Perl5: regex)('some')
          PsiElement(Perl5: r})('}')
          PsiElement(Perl5: re{)('<')
          PsiPerlBlockBracelessImpl(Perl5: BLOCK_BRACELESS)
            PsiPerlBlockCompoundImpl(Perl5: BLOCK_COMPOUND)
              PsiPerlBlockImpl(Perl5: BLOCK)
                PsiElement(Perl5: {)('{')
                PsiErrorElement:Perl5: } expected, got '>'
                  <empty list>
          PsiElement(Perl5: r})('>')
          PsiPerlPerlRegexModifiersImpl(Perl5: PERL_REGEX_MODIFIERS)
            PsiElement(Perl5: /m)('ee')
        PsiElement(Perl5: ;)(';')
      PsiElement(Perl5: })('}')
--------------------------------------------------------------------------------
Subtree: Perl5 POD (Perl5 POD)
POD file
  PsiElement(Perl5 POD: POD_OUTER)('{\n  s/some/ { /e;\n  s/some/ } /e;\n  s{some}< } >e;\n  s{some}< { >e;\n  s/some/ { /ee;\n  s/some/ } /ee;\n  s{some}< } >ee;\n  s{some}< { >ee;\n}')
--------------------------------------------------------------------------------
