Subtree: Perl5 (Perl5)
Perl5
  PsiPerlBlockCompoundImpl(Perl5: BLOCK_COMPOUND)
    PsiPerlBlockImpl(Perl5: BLOCK)
      PsiElement(Perl5: {)('{')
      PsiPerlStatementImpl(Perl5: STATEMENT)
        PsiPerlStringDqImpl(Perl5: STRING_DQ)
          PsiElement(Perl5: QUOTE_DOUBLE_OPEN)('"')
          PerlStringContentElementImpl(Perl5: STRING_CONTENT_QQ)(' some ')
          PsiPerlScalarCastExprImpl(Perl5: SCALAR_CAST_EXPR)
            PsiElement(Perl5: $$)('$')
            PsiPerlBlockScalarImpl(Perl5: BLOCK_SCALAR)
              PsiElement(Perl5: ${)('{')
              PsiPerlBlockCompoundImpl(Perl5: BLOCK_COMPOUND)
                PsiPerlBlockImpl(Perl5: BLOCK)
                  PsiElement(Perl5: {)('{')
                  PsiElement(Perl5: })('}')
              PsiPerlStatementImpl(Perl5: STATEMENT)
                PsiPerlSubCallImpl(SUB_CALL)
                  PsiPerlMethodImpl(Perl5: METHOD)
                    PerlSubNameElementImpl(Perl5: subname)('thing')
                PsiErrorElement:<call arguments>, <statement modifier>, Perl5: (, Perl5: ,, Perl5: => or Perl5: package::name expected, got '"'
                  PsiElement(Perl5: QUOTE_DOUBLE_CLOSE)('"')
                PsiElement(Perl5: ;)(';')
              PsiPerlStatementImpl(Perl5: STATEMENT)
                PsiPerlStringXqImpl(Perl5: STRING_XQ)
                  PsiElement(Perl5: QUOTE_TICK_OPEN)('`')
                  PerlStringContentElementImpl(Perl5: STRING_CONTENT_XQ)(' some ')
                  PsiPerlScalarCastExprImpl(Perl5: SCALAR_CAST_EXPR)
                    PsiElement(Perl5: $$)('$')
                    PsiPerlBlockScalarImpl(Perl5: BLOCK_SCALAR)
                      PsiElement(Perl5: ${)('{')
                      PsiPerlBlockCompoundImpl(Perl5: BLOCK_COMPOUND)
                        PsiPerlBlockImpl(Perl5: BLOCK)
                          PsiElement(Perl5: {)('{')
                          PsiElement(Perl5: })('}')
                      PsiPerlStatementImpl(Perl5: STATEMENT)
                        PsiPerlSubCallImpl(SUB_CALL)
                          PsiPerlMethodImpl(Perl5: METHOD)
                            PerlSubNameElementImpl(Perl5: subname)('thing')
                        PsiErrorElement:<call arguments>, <statement modifier>, Perl5: (, Perl5: ,, Perl5: => or Perl5: package::name expected, got '`'
                          PsiElement(Perl5: QUOTE_TICK_CLOSE)('`')
                        PsiElement(Perl5: ;)(';')
                      PsiPerlStatementImpl(Perl5: STATEMENT)
                        PsiPerlStringDqImpl(Perl5: STRING_DQ)
                          PsiElement(Perl5: QUOTE_DOUBLE_OPEN)('"')
                          PerlStringContentElementImpl(Perl5: STRING_CONTENT_QQ)(' some ')
                          PsiPerlArrayCastExprImpl(Perl5: ARRAY_CAST_EXPR)
                            PsiElement(Perl5: $@)('@')
                            PsiPerlBlockArrayImpl(Perl5: BLOCK_ARRAY)
                              PsiElement(Perl5: @{)('{')
                              PsiPerlBlockCompoundImpl(Perl5: BLOCK_COMPOUND)
                                PsiPerlBlockImpl(Perl5: BLOCK)
                                  PsiElement(Perl5: {)('{')
                                  PsiElement(Perl5: })('}')
                              PsiPerlStatementImpl(Perl5: STATEMENT)
                                PsiPerlSubCallImpl(SUB_CALL)
                                  PsiPerlMethodImpl(Perl5: METHOD)
                                    PerlSubNameElementImpl(Perl5: subname)('thing')
                                PsiErrorElement:<call arguments>, <statement modifier>, Perl5: (, Perl5: ,, Perl5: => or Perl5: package::name expected, got '"'
                                  PsiElement(Perl5: QUOTE_DOUBLE_CLOSE)('"')
                                PsiElement(Perl5: ;)(';')
                              PsiPerlStatementImpl(Perl5: STATEMENT)
                                PsiPerlStringXqImpl(Perl5: STRING_XQ)
                                  PsiElement(Perl5: QUOTE_TICK_OPEN)('`')
                                  PerlStringContentElementImpl(Perl5: STRING_CONTENT_XQ)(' some ')
                                  PsiPerlArrayCastExprImpl(Perl5: ARRAY_CAST_EXPR)
                                    PsiElement(Perl5: $@)('@')
                                    PsiPerlBlockArrayImpl(Perl5: BLOCK_ARRAY)
                                      PsiElement(Perl5: @{)('{')
                                      PsiPerlBlockCompoundImpl(Perl5: BLOCK_COMPOUND)
                                        PsiPerlBlockImpl(Perl5: BLOCK)
                                          PsiElement(Perl5: {)('{')
                                          PsiElement(Perl5: })('}')
                                      PsiPerlStatementImpl(Perl5: STATEMENT)
                                        PsiPerlSubCallImpl(SUB_CALL)
                                          PsiPerlMethodImpl(Perl5: METHOD)
                                            PerlSubNameElementImpl(Perl5: subname)('thing')
                                        PsiErrorElement:<call arguments>, <statement modifier>, Perl5: (, Perl5: ,, Perl5: => or Perl5: package::name expected, got '`'
                                          PsiElement(Perl5: QUOTE_TICK_CLOSE)('`')
                                        PsiElement(Perl5: ;)(';')
                                      PsiPerlStatementImpl(Perl5: STATEMENT)
                                        PsiPerlStringDqImpl(Perl5: STRING_DQ)
                                          PsiElement(Perl5: qq)('qq')
                                          PsiElement(Perl5: QUOTE_DOUBLE_OPEN)('/')
                                          PerlStringContentElementImpl(Perl5: STRING_CONTENT_QQ)(' some ')
                                          PsiPerlScalarCastExprImpl(Perl5: SCALAR_CAST_EXPR)
                                            PsiElement(Perl5: $$)('$')
                                            PsiPerlBlockScalarImpl(Perl5: BLOCK_SCALAR)
                                              PsiElement(Perl5: ${)('{')
                                              PsiPerlBlockCompoundImpl(Perl5: BLOCK_COMPOUND)
                                                PsiPerlBlockImpl(Perl5: BLOCK)
                                                  PsiElement(Perl5: {)('{')
                                                  PsiElement(Perl5: })('}')
                                              PsiPerlStatementImpl(Perl5: STATEMENT)
                                                PsiPerlSubCallImpl(SUB_CALL)
                                                  PsiPerlMethodImpl(Perl5: METHOD)
                                                    PerlSubNameElementImpl(Perl5: subname)('thing')
                                                PsiErrorElement:<call arguments>, <statement modifier>, Perl5: (, Perl5: ,, Perl5: => or Perl5: package::name expected, got '/'
                                                  PsiElement(Perl5: QUOTE_DOUBLE_CLOSE)('/')
                                                PsiElement(Perl5: ;)(';')
                                              PsiPerlStatementImpl(Perl5: STATEMENT)
                                                PsiPerlStringXqImpl(Perl5: STRING_XQ)
                                                  PsiElement(Perl5: qx)('qx')
                                                  PsiElement(Perl5: QUOTE_TICK_OPEN)('/')
                                                  PerlStringContentElementImpl(Perl5: STRING_CONTENT_XQ)(' some ')
                                                  PsiPerlScalarCastExprImpl(Perl5: SCALAR_CAST_EXPR)
                                                    PsiElement(Perl5: $$)('$')
                                                    PsiPerlBlockScalarImpl(Perl5: BLOCK_SCALAR)
                                                      PsiElement(Perl5: ${)('{')
                                                      PsiPerlBlockCompoundImpl(Perl5: BLOCK_COMPOUND)
                                                        PsiPerlBlockImpl(Perl5: BLOCK)
                                                          PsiElement(Perl5: {)('{')
                                                          PsiElement(Perl5: })('}')
                                                      PsiPerlStatementImpl(Perl5: STATEMENT)
                                                        PsiPerlSubCallImpl(SUB_CALL)
                                                          PsiPerlMethodImpl(Perl5: METHOD)
                                                            PerlSubNameElementImpl(Perl5: subname)('thing')
                                                        PsiErrorElement:<call arguments>, <statement modifier>, Perl5: (, Perl5: ,, Perl5: => or Perl5: package::name expected, got '/'
                                                          PsiElement(Perl5: QUOTE_TICK_CLOSE)('/')
                                                        PsiElement(Perl5: ;)(';')
                                                      PsiPerlStatementImpl(Perl5: STATEMENT)
                                                        PsiPerlStringDqImpl(Perl5: STRING_DQ)
                                                          PsiElement(Perl5: qq)('qq')
                                                          PsiElement(Perl5: QUOTE_DOUBLE_OPEN)('/')
                                                          PerlStringContentElementImpl(Perl5: STRING_CONTENT_QQ)(' some ')
                                                          PsiPerlArrayCastExprImpl(Perl5: ARRAY_CAST_EXPR)
                                                            PsiElement(Perl5: $@)('@')
                                                            PsiPerlBlockArrayImpl(Perl5: BLOCK_ARRAY)
                                                              PsiElement(Perl5: @{)('{')
                                                              PsiPerlBlockCompoundImpl(Perl5: BLOCK_COMPOUND)
                                                                PsiPerlBlockImpl(Perl5: BLOCK)
                                                                  PsiElement(Perl5: {)('{')
                                                                  PsiElement(Perl5: })('}')
                                                              PsiPerlStatementImpl(Perl5: STATEMENT)
                                                                PsiPerlSubCallImpl(SUB_CALL)
                                                                  PsiPerlMethodImpl(Perl5: METHOD)
                                                                    PerlSubNameElementImpl(Perl5: subname)('thing')
                                                                PsiErrorElement:<call arguments>, <statement modifier>, Perl5: (, Perl5: ,, Perl5: => or Perl5: package::name expected, got '/'
                                                                  PsiElement(Perl5: QUOTE_DOUBLE_CLOSE)('/')
                                                                PsiElement(Perl5: ;)(';')
                                                              PsiPerlStatementImpl(Perl5: STATEMENT)
                                                                PsiPerlStringXqImpl(Perl5: STRING_XQ)
                                                                  PsiElement(Perl5: qx)('qx')
                                                                  PsiElement(Perl5: QUOTE_TICK_OPEN)('/')
                                                                  PerlStringContentElementImpl(Perl5: STRING_CONTENT_XQ)(' some ')
                                                                  PsiPerlArrayCastExprImpl(Perl5: ARRAY_CAST_EXPR)
                                                                    PsiElement(Perl5: $@)('@')
                                                                    PsiPerlBlockArrayImpl(Perl5: BLOCK_ARRAY)
                                                                      PsiElement(Perl5: @{)('{')
                                                                      PsiPerlBlockCompoundImpl(Perl5: BLOCK_COMPOUND)
                                                                        PsiPerlBlockImpl(Perl5: BLOCK)
                                                                          PsiElement(Perl5: {)('{')
                                                                          PsiElement(Perl5: })('}')
                                                                      PsiPerlStatementImpl(Perl5: STATEMENT)
                                                                        PsiPerlSubCallImpl(SUB_CALL)
                                                                          PsiPerlMethodImpl(Perl5: METHOD)
                                                                            PerlSubNameElementImpl(Perl5: subname)('thing')
                                                                        PsiErrorElement:<call arguments>, <statement modifier>, Perl5: (, Perl5: ,, Perl5: => or Perl5: package::name expected, got '/'
                                                                          PsiElement(Perl5: QUOTE_TICK_CLOSE)('/')
                                                                        PsiElement(Perl5: ;)(';')
                                                                      PsiPerlStatementImpl(Perl5: STATEMENT)
                                                                        PsiPerlHeredocOpenerImpl(Perl5: HEREDOC_OPENER)
                                                                          PsiElement(Perl5: heredoc<<)('<<')
                                                                          PsiPerlStringBareImpl(Perl5: STRING_BARE)
                                                                            PerlStringContentElementImpl(Perl5: STRING_CONTENT)('EOM')
                                                                        PsiElement(Perl5: ;)(';')
                                                                      PerlHeredocElementImpl(Perl5: HEREDOC_QQ)
                                                                        PerlStringContentElementImpl(Perl5: STRING_CONTENT_QQ)(' some ')
                                                                        PsiPerlScalarCastExprImpl(Perl5: SCALAR_CAST_EXPR)
                                                                          PsiElement(Perl5: $$)('$')
                                                                          PsiPerlBlockScalarImpl(Perl5: BLOCK_SCALAR)
                                                                            PsiElement(Perl5: ${)('{')
                                                                            PsiPerlBlockCompoundImpl(Perl5: BLOCK_COMPOUND)
                                                                              PsiPerlBlockImpl(Perl5: BLOCK)
                                                                                PsiElement(Perl5: {)('{')
                                                                                PsiElement(Perl5: })('}')
                                                                            PsiPerlStatementImpl(Perl5: STATEMENT)
                                                                              PsiPerlSubCallImpl(SUB_CALL)
                                                                                PsiPerlMethodImpl(Perl5: METHOD)
                                                                                  PerlSubNameElementImpl(Perl5: subname)('thing')
                                                                                PsiPerlCallArgumentsImpl(Perl5: CALL_ARGUMENTS)
                                                                                  PsiPerlSubCallImpl(SUB_CALL)
                                                                                    PsiPerlMethodImpl(Perl5: METHOD)
                                                                                      PerlSubNameElementImpl(Perl5: subname)('some')
                                                                                    PsiPerlCallArgumentsImpl(Perl5: CALL_ARGUMENTS)
                                                                                      PsiPerlScalarCastExprImpl(Perl5: SCALAR_CAST_EXPR)
                                                                                        PsiElement(Perl5: $$)('$')
                                                                                        PsiPerlBlockScalarImpl(Perl5: BLOCK_SCALAR)
                                                                                          PsiElement(Perl5: ${)('{')
                                                                                          PsiPerlBlockCompoundImpl(Perl5: BLOCK_COMPOUND)
                                                                                            PsiPerlBlockImpl(Perl5: BLOCK)
                                                                                              PsiElement(Perl5: {)('{')
                                                                                              PsiElement(Perl5: })('}')
                                                                                          PsiPerlStatementImpl(Perl5: STATEMENT)
                                                                                            PsiPerlSubCallImpl(SUB_CALL)
                                                                                              PsiPerlMethodImpl(Perl5: METHOD)
                                                                                                PerlSubNameElementImpl(Perl5: subname)('thing')
                                                                                              PsiPerlCallArgumentsImpl(Perl5: CALL_ARGUMENTS)
                                                                                                PsiPerlSubCallImpl(SUB_CALL)
                                                                                                  PsiPerlMethodImpl(Perl5: METHOD)
                                                                                                    PerlSubNameElementImpl(Perl5: subname)('some')
                                                                                                  PsiPerlCallArgumentsImpl(Perl5: CALL_ARGUMENTS)
                                                                                                    PsiPerlArrayCastExprImpl(Perl5: ARRAY_CAST_EXPR)
                                                                                                      PsiElement(Perl5: $@)('@')
                                                                                                      PsiPerlBlockArrayImpl(Perl5: BLOCK_ARRAY)
                                                                                                        PsiElement(Perl5: @{)('{')
                                                                                                        PsiPerlBlockCompoundImpl(Perl5: BLOCK_COMPOUND)
                                                                                                          PsiPerlBlockImpl(Perl5: BLOCK)
                                                                                                            PsiElement(Perl5: {)('{')
                                                                                                            PsiElement(Perl5: })('}')
                                                                                                        PsiPerlStatementImpl(Perl5: STATEMENT)
                                                                                                          PsiPerlSubCallImpl(SUB_CALL)
                                                                                                            PsiPerlMethodImpl(Perl5: METHOD)
                                                                                                              PerlSubNameElementImpl(Perl5: subname)('thing')
                                                                                                            PsiPerlCallArgumentsImpl(Perl5: CALL_ARGUMENTS)
                                                                                                              PsiPerlSubCallImpl(SUB_CALL)
                                                                                                                PsiPerlMethodImpl(Perl5: METHOD)
                                                                                                                  PerlSubNameElementImpl(Perl5: subname)('some')
                                                                                                                PsiPerlCallArgumentsImpl(Perl5: CALL_ARGUMENTS)
                                                                                                                  PsiPerlArrayCastExprImpl(Perl5: ARRAY_CAST_EXPR)
                                                                                                                    PsiElement(Perl5: $@)('@')
                                                                                                                    PsiPerlBlockArrayImpl(Perl5: BLOCK_ARRAY)
                                                                                                                      PsiElement(Perl5: @{)('{')
                                                                                                                      PsiPerlBlockCompoundImpl(Perl5: BLOCK_COMPOUND)
                                                                                                                        PsiPerlBlockImpl(Perl5: BLOCK)
                                                                                                                          PsiElement(Perl5: {)('{')
                                                                                                                          PsiElement(Perl5: })('}')
                                                                                                                      PsiPerlStatementImpl(Perl5: STATEMENT)
                                                                                                                        PsiPerlSubCallImpl(SUB_CALL)
                                                                                                                          PsiPerlMethodImpl(Perl5: METHOD)
                                                                                                                            PerlSubNameElementImpl(Perl5: subname)('thing')
                                                                                                                      PsiErrorElement:Perl5: @} expected
                                                                                                                        <empty list>
                                                                      PsiComment(Perl5: HEREDOC_END)('EOM')
                                                                      PsiPerlStatementImpl(Perl5: STATEMENT)
                                                                        PsiPerlHeredocOpenerImpl(Perl5: HEREDOC_OPENER)
                                                                          PsiElement(Perl5: heredoc<<)('<<')
                                                                          PsiPerlStringDqImpl(Perl5: STRING_DQ)
                                                                            PsiElement(Perl5: QUOTE_DOUBLE_OPEN)('"')
                                                                            PerlStringContentElementImpl(Perl5: STRING_CONTENT_QQ)('EOM')
                                                                            PsiElement(Perl5: QUOTE_DOUBLE_CLOSE)('"')
                                                                        PsiElement(Perl5: ;)(';')
                                                                      PerlHeredocElementImpl(Perl5: HEREDOC_QQ)
                                                                        PerlStringContentElementImpl(Perl5: STRING_CONTENT_QQ)(' some ')
                                                                        PsiPerlScalarCastExprImpl(Perl5: SCALAR_CAST_EXPR)
                                                                          PsiElement(Perl5: $$)('$')
                                                                          PsiPerlBlockScalarImpl(Perl5: BLOCK_SCALAR)
                                                                            PsiElement(Perl5: ${)('{')
                                                                            PsiPerlBlockCompoundImpl(Perl5: BLOCK_COMPOUND)
                                                                              PsiPerlBlockImpl(Perl5: BLOCK)
                                                                                PsiElement(Perl5: {)('{')
                                                                                PsiElement(Perl5: })('}')
                                                                            PsiPerlStatementImpl(Perl5: STATEMENT)
                                                                              PsiPerlSubCallImpl(SUB_CALL)
                                                                                PsiPerlMethodImpl(Perl5: METHOD)
                                                                                  PerlSubNameElementImpl(Perl5: subname)('thing')
                                                                                PsiPerlCallArgumentsImpl(Perl5: CALL_ARGUMENTS)
                                                                                  PsiPerlSubCallImpl(SUB_CALL)
                                                                                    PsiPerlMethodImpl(Perl5: METHOD)
                                                                                      PerlSubNameElementImpl(Perl5: subname)('some')
                                                                                    PsiPerlCallArgumentsImpl(Perl5: CALL_ARGUMENTS)
                                                                                      PsiPerlScalarCastExprImpl(Perl5: SCALAR_CAST_EXPR)
                                                                                        PsiElement(Perl5: $$)('$')
                                                                                        PsiPerlBlockScalarImpl(Perl5: BLOCK_SCALAR)
                                                                                          PsiElement(Perl5: ${)('{')
                                                                                          PsiPerlBlockCompoundImpl(Perl5: BLOCK_COMPOUND)
                                                                                            PsiPerlBlockImpl(Perl5: BLOCK)
                                                                                              PsiElement(Perl5: {)('{')
                                                                                              PsiElement(Perl5: })('}')
                                                                                          PsiPerlStatementImpl(Perl5: STATEMENT)
                                                                                            PsiPerlSubCallImpl(SUB_CALL)
                                                                                              PsiPerlMethodImpl(Perl5: METHOD)
                                                                                                PerlSubNameElementImpl(Perl5: subname)('thing')
                                                                                              PsiPerlCallArgumentsImpl(Perl5: CALL_ARGUMENTS)
                                                                                                PsiPerlSubCallImpl(SUB_CALL)
                                                                                                  PsiPerlMethodImpl(Perl5: METHOD)
                                                                                                    PerlSubNameElementImpl(Perl5: subname)('some')
                                                                                                  PsiPerlCallArgumentsImpl(Perl5: CALL_ARGUMENTS)
                                                                                                    PsiPerlArrayCastExprImpl(Perl5: ARRAY_CAST_EXPR)
                                                                                                      PsiElement(Perl5: $@)('@')
                                                                                                      PsiPerlBlockArrayImpl(Perl5: BLOCK_ARRAY)
                                                                                                        PsiElement(Perl5: @{)('{')
                                                                                                        PsiPerlBlockCompoundImpl(Perl5: BLOCK_COMPOUND)
                                                                                                          PsiPerlBlockImpl(Perl5: BLOCK)
                                                                                                            PsiElement(Perl5: {)('{')
                                                                                                            PsiElement(Perl5: })('}')
                                                                                                        PsiPerlStatementImpl(Perl5: STATEMENT)
                                                                                                          PsiPerlSubCallImpl(SUB_CALL)
                                                                                                            PsiPerlMethodImpl(Perl5: METHOD)
                                                                                                              PerlSubNameElementImpl(Perl5: subname)('thing')
                                                                                                            PsiPerlCallArgumentsImpl(Perl5: CALL_ARGUMENTS)
                                                                                                              PsiPerlSubCallImpl(SUB_CALL)
                                                                                                                PsiPerlMethodImpl(Perl5: METHOD)
                                                                                                                  PerlSubNameElementImpl(Perl5: subname)('some')
                                                                                                                PsiPerlCallArgumentsImpl(Perl5: CALL_ARGUMENTS)
                                                                                                                  PsiPerlArrayCastExprImpl(Perl5: ARRAY_CAST_EXPR)
                                                                                                                    PsiElement(Perl5: $@)('@')
                                                                                                                    PsiPerlBlockArrayImpl(Perl5: BLOCK_ARRAY)
                                                                                                                      PsiElement(Perl5: @{)('{')
                                                                                                                      PsiPerlBlockCompoundImpl(Perl5: BLOCK_COMPOUND)
                                                                                                                        PsiPerlBlockImpl(Perl5: BLOCK)
                                                                                                                          PsiElement(Perl5: {)('{')
                                                                                                                          PsiElement(Perl5: })('}')
                                                                                                                      PsiPerlStatementImpl(Perl5: STATEMENT)
                                                                                                                        PsiPerlSubCallImpl(SUB_CALL)
                                                                                                                          PsiPerlMethodImpl(Perl5: METHOD)
                                                                                                                            PerlSubNameElementImpl(Perl5: subname)('thing')
                                                                                                                      PsiErrorElement:Perl5: @} expected
                                                                                                                        <empty list>
                                                                      PsiComment(Perl5: HEREDOC_END)('EOM')
                                                                      PsiPerlStatementImpl(Perl5: STATEMENT)
                                                                        PsiPerlHeredocOpenerImpl(Perl5: HEREDOC_OPENER)
                                                                          PsiElement(Perl5: heredoc<<)('<<')
                                                                          PsiPerlStringXqImpl(Perl5: STRING_XQ)
                                                                            PsiElement(Perl5: QUOTE_TICK_OPEN)('`')
                                                                            PerlStringContentElementImpl(Perl5: STRING_CONTENT_XQ)('EOM')
                                                                            PsiElement(Perl5: QUOTE_TICK_CLOSE)('`')
                                                                        PsiElement(Perl5: ;)(';')
      PerlHeredocElementImpl(Perl5: HEREDOC_QX)
        PerlStringContentElementImpl(Perl5: STRING_CONTENT_XQ)(' some ')
        PsiPerlScalarCastExprImpl(Perl5: SCALAR_CAST_EXPR)
          PsiElement(Perl5: $$)('$')
          PsiPerlBlockScalarImpl(Perl5: BLOCK_SCALAR)
            PsiElement(Perl5: ${)('{')
            PsiPerlBlockCompoundImpl(Perl5: BLOCK_COMPOUND)
              PsiPerlBlockImpl(Perl5: BLOCK)
                PsiElement(Perl5: {)('{')
                PsiElement(Perl5: })('}')
            PsiPerlStatementImpl(Perl5: STATEMENT)
              PsiPerlSubCallImpl(SUB_CALL)
                PsiPerlMethodImpl(Perl5: METHOD)
                  PerlSubNameElementImpl(Perl5: subname)('thing')
                PsiPerlCallArgumentsImpl(Perl5: CALL_ARGUMENTS)
                  PsiPerlSubCallImpl(SUB_CALL)
                    PsiPerlMethodImpl(Perl5: METHOD)
                      PerlSubNameElementImpl(Perl5: subname)('some')
                    PsiPerlCallArgumentsImpl(Perl5: CALL_ARGUMENTS)
                      PsiPerlScalarCastExprImpl(Perl5: SCALAR_CAST_EXPR)
                        PsiElement(Perl5: $$)('$')
                        PsiPerlBlockScalarImpl(Perl5: BLOCK_SCALAR)
                          PsiElement(Perl5: ${)('{')
                          PsiPerlBlockCompoundImpl(Perl5: BLOCK_COMPOUND)
                            PsiPerlBlockImpl(Perl5: BLOCK)
                              PsiElement(Perl5: {)('{')
                              PsiElement(Perl5: })('}')
                          PsiPerlStatementImpl(Perl5: STATEMENT)
                            PsiPerlSubCallImpl(SUB_CALL)
                              PsiPerlMethodImpl(Perl5: METHOD)
                                PerlSubNameElementImpl(Perl5: subname)('thing')
                              PsiPerlCallArgumentsImpl(Perl5: CALL_ARGUMENTS)
                                PsiPerlSubCallImpl(SUB_CALL)
                                  PsiPerlMethodImpl(Perl5: METHOD)
                                    PerlSubNameElementImpl(Perl5: subname)('some')
                                  PsiPerlCallArgumentsImpl(Perl5: CALL_ARGUMENTS)
                                    PsiPerlArrayCastExprImpl(Perl5: ARRAY_CAST_EXPR)
                                      PsiElement(Perl5: $@)('@')
                                      PsiPerlBlockArrayImpl(Perl5: BLOCK_ARRAY)
                                        PsiElement(Perl5: @{)('{')
                                        PsiPerlBlockCompoundImpl(Perl5: BLOCK_COMPOUND)
                                          PsiPerlBlockImpl(Perl5: BLOCK)
                                            PsiElement(Perl5: {)('{')
                                            PsiElement(Perl5: })('}')
                                        PsiPerlStatementImpl(Perl5: STATEMENT)
                                          PsiPerlSubCallImpl(SUB_CALL)
                                            PsiPerlMethodImpl(Perl5: METHOD)
                                              PerlSubNameElementImpl(Perl5: subname)('thing')
                                            PsiPerlCallArgumentsImpl(Perl5: CALL_ARGUMENTS)
                                              PsiPerlSubCallImpl(SUB_CALL)
                                                PsiPerlMethodImpl(Perl5: METHOD)
                                                  PerlSubNameElementImpl(Perl5: subname)('some')
                                                PsiPerlCallArgumentsImpl(Perl5: CALL_ARGUMENTS)
                                                  PsiPerlArrayCastExprImpl(Perl5: ARRAY_CAST_EXPR)
                                                    PsiElement(Perl5: $@)('@')
                                                    PsiPerlBlockArrayImpl(Perl5: BLOCK_ARRAY)
                                                      PsiElement(Perl5: @{)('{')
                                                      PsiPerlBlockCompoundImpl(Perl5: BLOCK_COMPOUND)
                                                        PsiPerlBlockImpl(Perl5: BLOCK)
                                                          PsiElement(Perl5: {)('{')
                                                          PsiElement(Perl5: })('}')
                                                      PsiPerlStatementImpl(Perl5: STATEMENT)
                                                        PsiPerlSubCallImpl(SUB_CALL)
                                                          PsiPerlMethodImpl(Perl5: METHOD)
                                                            PerlSubNameElementImpl(Perl5: subname)('thing')
                                                      PsiErrorElement:Perl5: @} expected
                                                        <empty list>
      PsiComment(Perl5: HEREDOC_END)('EOM')
      PsiElement(Perl5: })('}')
--------------------------------------------------------------------------------
Subtree: Perl5 POD (Perl5 POD)
POD file
  PsiElement(Perl5 POD: POD_OUTER)('{\n  " some ${ { } thing";\n  ` some ${ { } thing`;\n  " some @{ { } thing";\n  ` some @{ { } thing`;\n\n  qq/ some ${ { } thing/;\n  qx/ some ${ { } thing/;\n  qq/ some @{ { } thing/;\n  qx/ some @{ { } thing/;\n\n  <<EOM;\n some ${ { } thing\n some ${ { } thing\n some @{ { } thing\n some @{ { } thing\nEOM\n\n  <<"EOM";\n some ${ { } thing\n some ${ { } thing\n some @{ { } thing\n some @{ { } thing\nEOM\n\n  <<`EOM`;\n some ${ { } thing\n some ${ { } thing\n some @{ { } thing\n some @{ { } thing\nEOM\n\n}')
--------------------------------------------------------------------------------
