Reparsing block
----------
Element(Perl5: STRING_LIST)
----------
qw/test first one/
----------
After typing
----------
{
  say 'hi';
  say qw/test firstsome_thing<caret> one/;
}
----------
Psi structure
----------
Perl5
  PsiPerlBlockCompoundImpl(Perl5: BLOCK_COMPOUND)
    PsiPerlBlockImpl(Perl5: BLOCK)
      PsiElement(Perl5: {)('{')
      PsiWhiteSpace('\n  ')
      PsiPerlStatementImpl(Perl5: STATEMENT)
        PsiPerlPrintExprImpl(Perl5: PRINT_EXPR)
          PsiElement(Perl5: say)('say')
          PsiWhiteSpace(' ')
          PsiPerlCallArgumentsImpl(Perl5: CALL_ARGUMENTS)
            PsiPerlStringSqImpl(Perl5: STRING_SQ)
              PsiElement(Perl5: QUOTE_SINGLE_OPEN)(''')
              PerlStringContentElementImpl(Perl5: STRING_CONTENT)('hi')
              PsiElement(Perl5: QUOTE_SINGLE_CLOSE)(''')
        PsiElement(Perl5: ;)(';')
      PsiWhiteSpace('\n  ')
      PsiPerlStatementImpl(Perl5: STATEMENT)
        PsiPerlPrintExprImpl(Perl5: PRINT_EXPR)
          PsiElement(Perl5: say)('say')
          PsiWhiteSpace(' ')
          PsiPerlCallArgumentsImpl(Perl5: CALL_ARGUMENTS)
            PsiPerlStringListImpl(Perl5: STRING_LIST)
              PsiElement(Perl5: qw)('qw')
              PsiElement(Perl5: QUOTE_SINGLE_OPEN)('/')
              PsiPerlStringBareImpl(Perl5: STRING_BARE)
                PerlStringContentElementImpl(Perl5: STRING_CONTENT)('test')
              PsiWhiteSpace(' ')
              PsiPerlStringBareImpl(Perl5: STRING_BARE)
                PerlStringContentElementImpl(Perl5: STRING_CONTENT)('firstsome_thing')
              PsiWhiteSpace(' ')
              PsiPerlStringBareImpl(Perl5: STRING_BARE)
                PerlStringContentElementImpl(Perl5: STRING_CONTENT)('one')
              PsiElement(Perl5: QUOTE_SINGLE_CLOSE)('/')
        PsiElement(Perl5: ;)(';')
      PsiWhiteSpace('\n')
      PsiElement(Perl5: })('}')
