Reparsing block
----------
Full reparse
----------
After typing
----------
if($a){
  say 'hi' foreach(@something + )<caret> );
}

----------
Psi structure
----------
Perl5
  PsiPerlIfCompoundImpl(Perl5: IF_COMPOUND)
    PsiElement(Perl5: if)('if')
    PsiPerlConditionalBlockImpl(Perl5: CONDITIONAL_BLOCK)
      PsiPerlConditionExprImpl(Perl5: CONDITION_EXPR)
        PsiElement(Perl5: ()('(')
        PsiPerlScalarVariableImpl(Perl5: SCALAR_VARIABLE)
          PsiElement(Perl5: $$)('$')
          PerlVariableNameElementImpl(Perl5: SCALAR_NAME)('a')
        PsiElement(Perl5: ))(')')
      PsiPerlBlockImpl(Perl5: BLOCK)
        PsiElement(Perl5: {)('{')
        PsiWhiteSpace('\n  ')
        PsiPerlStatementImpl(Perl5: STATEMENT)
          PsiPerlPrintExprImpl(Perl5: PRINT_EXPR)
            PsiElement(Perl5: say)('say')
            PsiWhiteSpace(' ')
            PsiPerlCallArgumentsImpl(Perl5: CALL_ARGUMENTS)
              PsiPerlStringSqImpl(Perl5: STRING_SQ)
                PsiElement(Perl5: QUOTE_SINGLE_OPEN)(''')
                PerlStringContentElementImpl(Perl5: STRING_CONTENT)('hi')
                PsiElement(Perl5: QUOTE_SINGLE_CLOSE)(''')
          PsiWhiteSpace(' ')
          PsiPerlForStatementModifierImpl(Perl5: FOR_STATEMENT_MODIFIER)
            PsiElement(Perl5: foreach)('foreach')
            PsiPerlParenthesisedExprImpl(Perl5: PARENTHESISED_EXPR)
              PsiElement(Perl5: ()('(')
              PsiPerlAddExprImpl(Perl5: ADD_EXPR)
                PsiPerlArrayVariableImpl(Perl5: ARRAY_VARIABLE)
                  PsiElement(Perl5: $@)('@')
                  PerlVariableNameElementImpl(Perl5: ARRAY_NAME)('something')
                PsiWhiteSpace(' ')
                PsiElement(Perl5: +)('+')
                PsiErrorElement:<expr> expected, got ')'
                  <empty list>
              PsiWhiteSpace(' ')
              PsiElement(Perl5: ))(')')
          PsiWhiteSpace(' ')
          PsiErrorElement:Perl5: ,, Perl5: => or Perl5: [ expected, got ')'
            PsiElement(Perl5: ))(')')
          PsiElement(Perl5: ;)(';')
        PsiWhiteSpace('\n')
        PsiElement(Perl5: })('}')
  PsiWhiteSpace('\n')
