Reparsing block
----------
Element(Perl5: BLOCK)
----------
{
  around something($var,){
    say 'hi'
  }
}
----------
After typing
----------
if($a){
  around something($var,[]<caret>){
    say 'hi'
  }
}

----------
Psi structure
----------
Perl5
  PsiPerlIfCompoundImpl(Perl5: IF_COMPOUND)
    PsiElement(Perl5: if)('if')
    PsiPerlConditionalBlockImpl(Perl5: CONDITIONAL_BLOCK)
      PsiPerlConditionExprImpl(Perl5: CONDITION_EXPR)
        PsiElement(Perl5: ()('(')
        PsiPerlScalarVariableImpl(Perl5: SCALAR_VARIABLE)
          PsiElement(Perl5: $$)('$')
          PerlVariableNameElementImpl(Perl5: SCALAR_NAME)('a')
        PsiElement(Perl5: ))(')')
      PsiPerlBlockImpl(Perl5: BLOCK)
        PsiElement(Perl5: {)('{')
        PsiWhiteSpace('\n  ')
        PsiPerlAroundModifierImpl(Perl5: AROUND_MODIFIER)
          PsiElement(Perl5: fp_around)('around')
          PsiWhiteSpace(' ')
          PerlSubNameElementImpl(Perl5: subname)('something')
          PsiElement(Perl5: ()('(')
          PsiPerlSignatureContentImpl(Perl5: SIGNATURE_CONTENT)
            PsiPerlSignatureElementImpl(Perl5: SIGNATURE_ELEMENT)
              PsiPerlVariableDeclarationElementImpl(VARIABLE_DECLARATION_ELEMENT)
                PsiPerlScalarVariableImpl(Perl5: SCALAR_VARIABLE)
                  PsiElement(Perl5: $$)('$')
                  PerlVariableNameElementImpl(Perl5: SCALAR_NAME)('var')
            PsiElement(Perl5: ,)(',')
            PsiErrorElement:<scalar>, <sub signature element ignore>, <type specifier>, <variable declaration element>, Perl5: ,, Perl5: : or Perl5: => expected, got '['
              PsiElement(Perl5: [)('[')
            PsiElement(Perl5: ])(']')
          PsiElement(Perl5: ))(')')
          PsiPerlBlockImpl(Perl5: BLOCK)
            PsiElement(Perl5: {)('{')
            PsiWhiteSpace('\n    ')
            PsiPerlStatementImpl(Perl5: STATEMENT)
              PsiPerlPrintExprImpl(Perl5: PRINT_EXPR)
                PsiElement(Perl5: say)('say')
                PsiWhiteSpace(' ')
                PsiPerlCallArgumentsImpl(Perl5: CALL_ARGUMENTS)
                  PsiPerlStringSqImpl(Perl5: STRING_SQ)
                    PsiElement(Perl5: QUOTE_SINGLE_OPEN)(''')
                    PerlStringContentElementImpl(Perl5: STRING_CONTENT)('hi')
                    PsiElement(Perl5: QUOTE_SINGLE_CLOSE)(''')
            PsiWhiteSpace('\n  ')
            PsiElement(Perl5: })('}')
        PsiWhiteSpace('\n')
        PsiElement(Perl5: })('}')
  PsiWhiteSpace('\n')
